<?xml version="1.0" encoding="UTF-8" standalone="no"?>
<svg
   xmlns:dc="http://purl.org/dc/elements/1.1/"
   xmlns:cc="http://creativecommons.org/ns#"
   xmlns:rdf="http://www.w3.org/1999/02/22-rdf-syntax-ns#"
   xmlns:svg="http://www.w3.org/2000/svg"
   xmlns="http://www.w3.org/2000/svg"
   xmlns:xlink="http://www.w3.org/1999/xlink"
   xmlns:sodipodi="http://sodipodi.sourceforge.net/DTD/sodipodi-0.dtd"
   xmlns:inkscape="http://www.inkscape.org/namespaces/inkscape"
   width="26cm"
   height="9cm"
   viewBox="206 230 509 169"
   id="svg2"
   version="1.1"
   inkscape:version="0.48.4 r9939"
   sodipodi:docname="user-kernel.pdf">
  <metadata
     id="metadata42">
    <rdf:RDF>
      <cc:Work
         rdf:about="">
        <dc:format>image/svg+xml</dc:format>
        <dc:type
           rdf:resource="http://purl.org/dc/dcmitype/StillImage" />
        <dc:title></dc:title>
      </cc:Work>
    </rdf:RDF>
  </metadata>
  <defs
     id="defs40" />
  <sodipodi:namedview
     pagecolor="#ffffff"
     bordercolor="#666666"
     borderopacity="1"
     objecttolerance="10"
     gridtolerance="10"
     guidetolerance="10"
     inkscape:pageopacity="0"
     inkscape:pageshadow="2"
     inkscape:window-width="1280"
     inkscape:window-height="744"
     id="namedview38"
     showgrid="false"
     inkscape:zoom="0.74897437"
     inkscape:cx="789.99248"
     inkscape:cy="147.74846"
     inkscape:window-x="0"
     inkscape:window-y="27"
     inkscape:window-maximized="1"
     inkscape:current-layer="svg2" />
  <image
     x="208"
     y="243.5"
     width="149"
     height="144.115"
     xlink:href="file:///home/mozzie/Date%20LiSA/610px-tux-g2-svg-svg.png"
     id="image4" />
  <text
     font-size="14.1111"
     style="fill: #000000;text-anchor:middle;font-family:sans-serif;font-style:normal;font-weight:700"
     x="279.5"
     y="331.557"
     id="text6">
    <tspan
       x="279.5"
       y="331.557"
       id="tspan8">Kernel</tspan>
    <tspan
       x="279.5"
       y="349.196"
       id="tspan10">module</tspan>
    <tspan
       x="279.5"
       y="366.835"
       id="tspan12" />
  </text>
  <image
     x="517"
     y="231.5"
     width="197"
     height="166.949"
     xlink:href="file:///home/mozzie/Date%20LiSA/User-Computer-Green.png"
     id="image14" />
  <text
     font-size="12.8"
     style="font-size:12.12426662px;font-style:normal;font-weight:700;text-anchor:middle;fill:#000000;font-family:sans-serif"
     x="686.66943"
     y="302.71356"
     id="text16"
     transform="scale(0.94720831,1.055734)">
    <tspan
       x="686.66943"
       y="302.71356"
       id="tspan18">Userspace</tspan>
    <tspan
       x="686.66943"
       y="317.8689"
       id="tspan20">application</tspan>
  </text>
  <g
     id="g22">
    <line
       style="fill: none; fill-opacity:0; stroke-width: 2; stroke: #000000"
       x1="346.736"
       y1="315.595"
       x2="537.264"
       y2="314.901"
       id="line24" />
    <polygon
       style="fill: #000000"
       points="339.236,315.622 349.218,310.586 346.736,315.595 349.254,320.586 "
       id="polygon26" />
    <polygon
       style="fill: none; fill-opacity:0; stroke-width: 2; stroke: #000000"
       points="339.236,315.622 349.218,310.586 346.736,315.595 349.254,320.586 "
       id="polygon28" />
    <polygon
       style="fill: #000000"
       points="544.764,314.873 534.782,319.91 537.264,314.901 534.746,309.91 "
       id="polygon30" />
    <polygon
       style="fill: none; fill-opacity:0; stroke-width: 2; stroke: #000000"
       points="544.764,314.873 534.782,319.91 537.264,314.901 534.746,309.91 "
       id="polygon32" />
  </g>
  <text
     font-size="12.7998"
     style="fill: #000000;text-anchor:start;font-family:sans-serif;font-style:normal;font-weight:normal"
     x="637"
     y="329.5"
     id="text34">
    <tspan
       x="637"
       y="329.5"
       id="tspan36" />
  </text>
</svg>
